[
  {
    "id": 1,
    "name": "Harry Potter",
    "age": 17,
    "member": "Yes",
    "movie": "Harry Potter",
    "email": "thia@gmail.com",
    "password": "@123654ww"
  },
  {
    "id": 2,
    "name": "Anna Lee",
    "age": 25,
    "member": "No",
    "movie": "Lode",
    "email": "anna@gmail.com",
    "password": "@1236ww"
  },
  {
    "id": 3,
    "name": "Nutchaya Pintabut",
    "age": 20,
    "member": "Yes",
    "email": "61160140@go.buu.ac.th",
    "password": "@nutcha1223"
  },
  {
    "id": 4,
    "name": "Nutchaya Pintabut",
    "age": 20,
    "member": "No",
    "email": "611601400@go.buu.ac.th",
    "password": "@nutcha1223"
  },
  {
    "id": 5,
    "name": "Chris Pratt",
    "age": 41,
    "member": "Yes",
    "movie": "Jurassic World",
    "email": "chris@gmail.com",
    "password": "@1234bb"
  },
  {
    "id": 6,
    "name": "Simba",
    "age": 12,
    "member": "Yes",
    "movie": "The Lion King",
    "email": "simba@gmail.com",
    "password": "@1234cc"
  },
  {
    "id": 7,
    "name": "Johny Depp",
    "member": "No",
    "movie": "Pirates of the Caribbean",
    "email": "depp@gmail.com",
    "password": "@1234dd"
  },
  {
    "id": 8,
    "name": "Manee Mena",
    "age": 19,
    "member": "No",
    "email": "mena@gmail.com",
    "password": "@1234ee"
  },
  {
    "id": 9,
    "name": "Kann",
    "age": 18,
    "member": "No",
    "email": "kann@gmail.com",
    "password": "@1234ff"
  },
  {
    "id": 10,
    "name": "Penpitcha Koona",
    "age": 21,
    "member": "Yes",
    "email": "am@gmail.com",
    "password": "@123gg"
  }
]
